[
    {
        "id": 1,
        "name": "John Doe",
        "company": "Some Compnay 1",
        "phone": "111-222-3333"
    },
    {
        "id": 2,
        "name": "Jane Doe",
        "company": "Some Compnay 2",
        "phone": "222-222-2222"
    },
    {
        "id": 3,
        "name": "John Doe",
        "company": "Some Compnay 3",
        "phone": "333-333-3333"
    }
]
